{       "id_gender": "1",
        "customer_firstname": "Ron",
        "customer_lastname": "Macaron",
        "email": "macaro@mail.ru",
        "passwd": "11111",
        "days": "7",
        "months": "7",
        "years": "2011",
        "firstname": "Ron",
        "Secondname": "Macaron",
        "company": "",
        "address1": "Green, 62",
        "address2": "",
        "city": "Alds",
        "id_state": "53",
        "postcode": "22007",
        "id_country": "21",
        "other": "",
        "phone": "",
        "phone_mobile": "+375291234567",
        "alias": "My+address",
        "dni": "",
        "email_create": "1",
        "is_new_customer": "1",
        "back": "my-account",
        "submitAccount": ""
}